5914
3657
261
5571
15484
14292
7324
950
15833
9252
13650
5972
7043
3077
1422
4784
16557
88
5709
6181
3561
5787
13747
15975
3687
5523
106
9683
2557
2401
16422
2495
10537
3194
1437
1468
960
3895
5341
7063
13854
11816
1161
14751
6375
8346
2283
7738
11250
10553
10126
10956
13740
6216
10907
3697
7484
8689
14358
13927
9979
7468
16709
6860
1560
7351
3780
9967
7488
11733
2704
3744
10975
8358
15645
9760
2199
7168
1431
2237
16707
7173
7538
8698
1890
1274
3498
5830
930
11055
12107
16066
6610
3830
1146
12055
3532
5368
9982
7862
6595
2698
11521
7487
1466
1595
9388
1322
1880
6971
5580
14160
412
4335
4773
282
12686
13659
14113
1655
472
936
201
11814
4748
9991
10682
5962
15510
6192
3795
2967
1069
3888
5922
3478
7257
14287
11312
13788
3975
3676
13799
14330
1626
12248
2535
12220
5594
3698
7126
6401
6978
2291
7052
4024
3500
3328
9963
2670
9125
3054
1270
15477
7696
7290
11059
1553
10764
962
316
9715
620
11386
8286
1872
7125
566
13767
12278
214
10795
1684
12963
2083
3540
16080
11051
13503
2647
13766
11785
2716
12978
600
1495
1286
12981
10110
7220
2699
9944
3704
3629
15268
19
11201
10780
1137
16783
955
7588
3331
5883
9888
9703
321
16171
957
6444
5601
11173
5373
7721
11926
14974
11741
15828
3592
11898
16170
12063
7480
2796
9997
6390
8777
15552
13993
9742
15740
2429
2926
8194
8310
7004
11904
10923
14623
2812
1919
1974
3610
1964
3221
6414
7744
653
6022
7251
7061
3665
7793
1741
10016
813
12508
2589
1667
6408
7805
769
3474
10911
11214
11537
15491
812
5590
2886
7731
6194
7045
12553
3746
634
317
9162
11
6927
13085
3706
6969
9684
15586
16263
2972
7263
2250
2498
12422
622
4046
15778
12555
5781
1491
11743
353
9813
3488
595
5527
12371
1866
12369
4739
507
8350
3535
3719
3775
3473
6048
2078
3389
10548
14605
16119
3640
8989
6358
3781
2242
7697
4801
13829
15664
364
1178
11325
6326
6219
4091
9816
3153
11159
8281
3548
10040
11212
1812
6992
16123
996
10702
9893
2454
563
14088
10704
11935
14393
10946
58
1727
2019
9975
3420
302
13408
6930
941
12209
7714
13522
1602
5806
2803
7669
1908
9933
7154
3641
15553
11049
13795
7492
15358
1850
399
10240
13626
1770
8095
2253
7463
4109
2182
7058
8354
9698
260
10238
15313
9127
2911
1414
16042
8225
4021
7065
6914
10679
2115
11903
737
13888
10551
3595
1067
7104
14126
11752
6152
2056
10824
9904
9160
20
573
5887
13622
10557
2757
6321
2869
5591
1653
2002
16244
11180
10215
13245
16201
2338
6293
5561
1417
11050
7695
1969
532
12140
122
16856
5905
931
7642
3278
2723
9962
5990
2041
5522
9695
7288
9142
2814
12600
376
14159
12548
13633
3733
1252
6159
13776
11922
2834
2708
8906
2352
2411
6045
16140
1406
14029
7318
7649
5350
10850
6726
7087
4048
1856
16215
2465
2053
297
3081
6075
10221
6934
16695
12514
3042
3197
3317
13238
7280
13409
15059
13640
7390
5597
8153
3078
1738
14668
1994
12979
1026
12291
8776
5828
2636
411
12543
12202
16161
146
1630
6302
11905
324
2506
6016
10925
6945
2802
3587
8160
10243
6940
1154
11635
2037
11381
3670
1006
843
11783
6024
876
9918
5792
15545
16623
9910
9015
2596
9973
8296
13277
7264
1190
3079
1795
14468
11065
5836
15471
13601
2456
9833
12513
7002
3829
9749
2372
1505
16243
3394
10621
1953
3543
4058
14981
6339
7774
1915
13444
5895
1364
10774
8299
6179
6001
5579
4126
3731
5339
1157
15067
11026
13874
603
15359
2066
6871
1786
9892
11891
1617
14683
9924
145
10938
1881
13255
2855
7066
2987
9942
7025
7401
3090
10944
11892
8953
3207
4014
6354
9776
10986
7467
4063
8651
3307
7169
7115
3762
13049
16049
7712
11953
9743
5773
14368
4478
3466
10353
2025
1995
5588
7578
12956
134
3280
12974
893
14669
9891
12682
3588
1909
13994
7655
11606
9650
10775
655
2413
3152
11607
2965
13670
6932
6976
5517
6604
15540
3385
7106
6886
788
9011
1992
5803
878
2745
1696
2651
14652
12091
16789
3700
9767
1187
884
1905
1469
7735
2196
9793
3338
5833
4711
9759
124
6202
4781
12991
6421
10539
10963
2895
3570
1878
6968
9976
15764
3074
7740
6122
11178
1681
7073
15844
12675
7719
1496
9898
2407
11955
5823
979
13935
13380
2813
16303
1389
9163
9738
13790
564
12242
9824
15311
3840
9153
13053
3214
748
2489
7315
4844
9761
16245
14680
9154
5949
13482
109
11902
3834
13452
15671
12949
2172
8169
12370
6290
10837
15525
10794
12659
10972
3289
7679
315
7316
1712
6891
7729
12111
318
1591
986
6338
16159
1439
9807
8710
5380
13317
1194
3586
2547
15490
11056
12530
6142
384
7008
4045
2247
882
7113
432
7337
2241
8084
12427
14653
9785
990
619
868
9907
373
1697
6407
1736
1834
15780
1090
3093
3889
7587
1945
13954
4051
2657
9007
7226
7581
6198
16701
2906
10039
4786
16078
3215
10773
2500
7033
9123
184
6137
13057
4102
1582
16192
7776
150
3237
5562
15555
9459
6996
11629
11691
3686
1791
402
2779
1510
16693
6309
3979
7172
375
12975
16088
152
5348
259
2562
5394
956
11039
1096
2564
3333
6925
2487
14266
1886
14028
3496
1268
15019
5370
2290
1730
14337
9859
2294
11196
6205
171
1504
9798
971
6980
13929
4794
1480
14120
5897
5606
10710
1677
12421
3293
12285
2341
16348
11894
526
7653
7991
1179
16637
12439
1240
6357
15647
6876
3484
15038
2030
2315
11987
2042
9720
6425
2408
4766
12549
9946
4747
1965
12219
16654
13531
14059
11203
6145
7283
3574
7475
11032
549
3631
3458
253
9935
12539
13574
3812
12977
10811
3382
2504
2424
11071
11900
10952
7343
14953
12286
14155
3649
8082
1299
2358
10973
8677
3489
15368
973
2183
3648
16318
16561
15634
13792
1529
77
12240
11639
3972
6362
16450
14518
14200
3928
5600
15495
1587
2538
4054
9826
4802
1112
6049
6857
1896
15733
1635
7715
8355
5798
305
9014
11501
822
2239
12152
283
9732
137
4092
29
14626
10984
3567
16242
5896
10948
11690
10008
7131
8479
1249
438
15349
8942
7796
13774
5801
14058
3652
10851
11395
15981
8925
5910
7221
298
14273
6131
2519
15668
654
222
500
6121
8325
10538
12434
2822
6370
16850
5363
11083
3205
5603
3453
12442
1716
3226
3340
1668
7483
2573
13289
16712
1608
5812
15653
6874
7241
4
5928
8318
1424
8679
7395
9165
13478
16565
9772
2191
10947
15665
1478
15640
607
11333
7708
7691
1817
8946
9461
1970
7692
2095
15861
8166
7778
745
2027
7160
9866
1917
7029
12444
1215
8159
2287
7558
10565
6964
3926
4343
9712
2292
1317
6987
1181
6427
1216
7216
992
10917
7570
7674
11632
8161
2671
7751
2863
450
2501
3779
1613
6437
7019
14450
7546
11532
16128
1035
11392
15058
13942
5838
9728
11912
494
8965
1233
1548
14215
3609
3465
1195
1524
16638
12251
8482
12213
1999
7030
10823
1947
8723
2110
12137
8170
7227
968
6300
1251
1354
1546
985
5966
215
15904
9687
5338
14660
2351
3305
2231
3690
2074
2228
7357
949
1811
13730
3485
10228
7146
2093
7730
12523
10189
10617
2687
15257
11815
1127
6322
13005
809
3224
10241
4034
16625
12103
3306
2304
343
1523
4770
16182
14153
2377
8302
10220
1031
3924
9739
6952
3929
3218
3422
14606
570
468
16793
453
3625
3711
1592
8599
7233
3608
2121
3572
1312
2976
1788
5551
13941
1710
7504
7737
7157
7458
9124
9024
6297
11950
8322
7782
6983
13775
8154
7723
1485
15373
4337
3599
15497
4026
12962
1887
3232
14469
1976
12527
1076
11444
6447
4060
15520
6879
9568
11028
6314
16188
1644
12992
15736
3573
1305
7497
8598
9809
9694
612
15492
12146
10620
2033
11019
2108
3727
16300
3576
7660
7148
15514
10943
11073
16843
9697
5845
10674
997
13895
766
1776
7506
15635
1029
14124
3047
446
1998
10964
4760
11078
9806
5301
2805
11029
2961
7450
1224
12436
2201
1138
6959
11356
5811
6937
11048
6958
15667
12372
4792
2631
13583
2229
6197
194
3210
36
11332
12529
11477
4065
11704
6422
2799
3819
10843
16700
691
10018
9803
3943
1390
2020
3472
7149
7310
13006
13013
9799
3606
13642
15651
10848
1550
5804
1775
3671
8944
6371
7121
6365
3274
1055
10833
10540
7307
9992
9013
10531
1721
4100
8177
5712
1432
16260
3166
2686
16152
1751
9983
7786
2909
256
1632
11074
1
9682
10218
6165
12973
12106
10941
7689
455
5525
8970
12061
3449
10027
3981
8941
11951
7486
2601
7784
6298
4755
1213
428
4774
1906
2827
12988
6013
11389
6318
4798
6366
13479
4790
11045
6903
16209
1477
13450
7680
400
11720
13280
15476
4565
15470
11751
8260
7348
16130
645
12410
3816
969
75
15864
2508
13605
3309
6439
11013
1420
7181
7672
11210
13612
13488
3694
2047
3196
5964
15734
15846
2080
1266
15270
13421
3080
2224
15599
1223
459
5521
2232
1641
7046
7489
5939
12683
9916
7044
7471
4835
6446
15554
4618
363
278
5934
9811
630
9145
1262
179
6315
5020
881
13653
854
1471
4075
951
6928
2384
538
864
15109
14447
11144
3856
981
9003
16213
982
901
1588
10011
3600
7810
3414
7282
9116
9735
8078
8926
15835
13652
2963
3487
8280
15792
3621
5918
9912
15253
6195
12535
7543
4072
765
1902
13660
2929
6327
1576
3451
3462
2446
2612
2480
16264
13821
602
11996
7013
7807
2055
11131
10213
15673
16567
7186
1053
700
3432
11780
3053
387
10037
2440
14203
2563
14449
7771
13607
16153
11004
5881
768
571
7328
1362
4720
6191
1144
5304
1186
2492
3431
2841
9129
2597
16626
4788
16081
14988
11637
8253
1818
11895
8309
14268
12051
16023
945
3050
6283
13483
3390
9766
6990
5575
1950
48
2012
1951
8359
1814
4116
9023
13770
1750
15724
8087
924
820
1580
10681
16870
14748
13615
11627
2300
6291
7557
6308
1610
1401
16018
1156
265
14192
41
2781
8
7170
7136
6155
10831
5951
7034
12050
8691
2118
7821
4479
7005
3763
2784
16255
7389
6310
16228
16156
3822
10200
15650
1873
135
8983
6323
1428
2899
1955
15054
568
8274
8690
3120
4342
14110
3150
2006
1952
1586
6720
2773
1780
10120
3428
2876
4043
1918
7392
94
3646
1180
15051
2476
548
13018
10188
1816
16653
7076
13932
12210
1297
544
9883
626
9780
2625
14415
7727
6445
1241
1183
3446
9012
6017
839
1933
858
3545
13797
2278
9706
271
575
16418
688
2065
1482
15
351
14084
10156
7105
16872
2666
12088
15558
16711
170
3321
2517
1596
14231
394
10623
1966
12145
5296
452
7742
9937
3387
8982
14094
695
4038
155
1169
9989
8566
8996
5841
12264
9704
11006
3749
929
2362
2277
16635
7549
3287
947
2441
6041
7592
3740
11893
12104
1623
230
13651
11103
15556
2806
5369
15790
537
7291
5846
8966
2771
2043
14117
10025
10806
11909
793
810
7470
3223
16323
10206
5876
2343
14647
480
7547
287
7816
6223
76
3272
7402
8255
1845
12950
2912
1191
15760
7242
1607
7355
767
14658
2281
14744
10939
584
8297
2305
10711
7781
2192
8675
9890
3774
5374
16849
1648
1658
1920
1497
6870
2885
15229
13509
15337
3941
3800
7020
2518
3709
7336
12941
12435
11027
14585
7720
7685
1007
374
13486
1444
15526
1278
10195
14699
13938
2917
8077
4056
7687
4761
972
7501
3539
16651
927
1958
11695
16329
15986
2464
15511
5822
6161
1416
15512
340
7787
2910
5356
1399
2711
13490
2188
2879
6436
10003
2656
3154
8949
1703
2600
2443
7128
2896
1707
7358
7258
5819
7874
1993
12955
13480
12516
2417
10978
4655
2112
16233
5888
8265
12943
2975
1573
12092
5996
7726
9980
11053
9005
6178
180
1732
14980
14762
3397
6325
7806
13714
2068
10562
6395
6396
2386
559
1535
6328
6598
15842
7163
15012
7349
14520
218
16165
2509
13062
8857
10546
883
2227
11531
15061
12733
12283
7027
8070
5941
15431
1115
5574
13530
9764
7579
5346
3807
596
5847
9974
15329
10187
11069
6026
6039
10010
211
6158
209
99
5364
946
7213
12431
1621
8151
7717
1695
3685
9765
7580
1197
10237
5793
10239
13816
9922
2082
8604
493
4791
10856
6037
1904
1028
1912
6346
16154
6440
7031
15064
3758
3747
773
11940
7644
5991
2624
806
4339
5957
8256
6311
14051
3632
543
7164
9009
14112
1142
9710
13020
2399
3491
8261
9134
7059
8315
15641
3788
9958
9957
3279
8276
338
112
2195
11745
8361
239
14977
16563
12150
13015
7070
6342
8590
13967
3238
16050
14597
2966
14696
354
11209
1481
1885
687
6033
32
7330
11622
2962
6073
14471
1174
1790
3497
2502
12540
10680
1805
15017
2835
1601
8969
15921
395
13
14949
6984
641
16370
14375
12295
7111
1796
15481
7068
13684
3584
1565
2317
16846
3060
3383
7050
8224
11046
123
10798
13451
15649
1060
10678
483
13527
5937
10673
2438
1728
1078
15239
13771
9936
12453
331
10196
7308
6394
614
6895
10544
5919
10960
13008
10009
1571
7279
2276
4691
6909
16652
3468
5584
14568
10942
680
2588
11921
10670
13051
6132
15566
12097
940
16011
1804
1910
7662
5365
14698
1876
9133
15539
2406
6406
2171
13614
2459
4114
10041
3739
5303
15878
8924
3814
9691
3231
9959
2851
11034
7464
14275
1176
3551
15513
3569
7271
11472
11617
16566
4062
6411
11081
674
16229
1075
7331
7639
13591
2005
16134
3757
2616
7272
2556
9951
10804
1273
16124
14987
11693
16149
11211
6386
13689
752
11917
12556
16160
604
16319
7393
8094
1256
8998
2430
4095
2908
6367
7400
6941
3030
2888
8997
11924
2357
467
12998
5945
998
4077
2968
11946
16013
13481
15876
15587
14956
2450
7230
8714
1851
4098
12253
690
10561
5692
12084
35
7122
2204
8311
6348
12228
3894
3893
14259
15773
335
3337
263
6388
11749
783
1849
8316
759
1438
2659
3769
5372
8220
7519
7798
1639
14204
6399
3294
4050
12070
7346
11040
11689
7656
16842
12551
5599
2398
11964
12957
4718
10533
10232
3837
14326
5874
14370
6974
3887
1807
3580
5783
3688
3190
481
1825
3531
7694
6196
785
1032
3797
6986
934
13637
12541
1618
11942
303
6397
346
10619
9920
8138
8884
15598
763
8696
16044
16321
266
1046
16016
2345
11202
11035
14107
4115
13590
15727
9894
2094
11391
14062
16844
1808
5149
7117
10676
2852
5383
6977
689
12542
8320
7749
13955
10440
917
10616
7728
3304
10921
197
1097
15466
1464
1843
7699
4775
1048
231
11931
5839
5818
2422
15681
8100
7177
2371
2817
7039
7281
12420
6915
14095
3089
1739
5816
5553
2451
6021
5
7069
1193
8295
3421
2931
3045
2853
14063
656
13661
11883
9953
3633
9906
148
7823
13041
2160
15357
841
11057
808
2927
7575
5976
16091
2439
13928
7508
693
12976
9815
15515
4118
185
16122
3366
425
663
3410
5977
7083
3897
7791
6078
3229
16699
6347
561
3712
15642
252
974
13636
12972
3092
6600
16293
6015
6329
6186
1476
14998
1151
12515
15922
12073
7388
1733
16644
2621
3055
2622
7095
3827
11929
1547
5992
7743
2394
210
15312
14086
6023
3721
3674
16256
10192
6378
784
3554
3734
12679
2457
12109
7590
15669
6330
15659
1057
3627
3655
10855
613
3794
1778
8999
848
2452
11442
8645
1489
2860
5343
16301
16564
6176
11914
2167
3536
2251
205
9952
8681
6292
3760
7387
15256
3679
129
2750
13620
216
1903
3761
10191
10020
1509
2071
2473
470
9692
13985
1935
3974
8981
219
1155
5577
772
73
3581
7636
919
6042
7713
6351
14587
12510
16787
2775
313
2768
3517
6201
1173
1889
13656
479
1753
2478
7184
1346
13301
9786
12265
16619
1259
10799
8083
794
91
3236
9744
7700
897
6379
7175
16868
13586
6880
2712
14441
2800
2293
2521
8303
1408
6429
12443
2258
9158
12688
11177
12985
7812
15679
6861
11021
2470
7332
4765
3896
2474
1689
14101
1719
11899
117
7650
13017
2252
10954
6900
8088
8943
13713
372
1238
12218
410
486
3225
16785
11896
7092
12099
13635
3381
11526
4486
9477
2838
11036
8972
639
6313
11076
961
13639
1132
14087
114
7038
9897
1486
10618
1128
1265
9
863
12226
3787
6166
2189
15037
13688
2035
16076
3613
12
4758
3118
2259
12065
10235
1433
5782
10715
14371
2692
7663
10530
1073
3653
2717
1461
9718
1430
1518
12095
16697
15509
8476
1914
16043
814
6167
2342
6905
2778
797
12096
12445
9475
5559
2435
1584
11957
1819
1715
2846
12961
5586
1972
3091
7309
4759
15897
10965
16120
15770
3970
7040
3412
16168
15600
6269
10563
10109
11015
2036
7082
2974
7668
2274
6373
11811
13276
3614
3810
3425
12144
1318
1609
4113
5915
1669
582
10778
241
15982
601
16041
7167
14061
15468
12425
8085
11916
13540
8326
2
4082
6939
2887
8963
830
3186
6580
15577
8738
15022
1735
7090
5556
8586
2120
7676
1304
11082
1841
2587
5382
15674
6877
10974
15367
11060
16841
8699
5827
13274
5378
10112
16555
6299
1133
3234
5989
293
11047
188
1054
5578
3689
2810
3533
1783
7673
15656
2279
12100
1745
3773
6074
7797
7235
2119
12268
10913
3603
13500
4785
14098
12980
3563
7254
16624
4796
15018
7214
6596
3571
1207
556
15976
2689
5985
1041
803
1226
8646
8068
7477
2546
7794
5340
3301
7684
15911
2409
5810
3437
13918
1823
6344
1629
3776
105
14
14166
16345
6605
2198
8986
16015
14347
11925
14574
5772
1230
9141
15984
12532
10808
7114
12221
12512
8221
2552
6393
10896
7159
8643
12521
6174
12056
329
12078
624
11890
4336
426
1011
611
12052
1932
6413
7255
1870
11747
7267
1084
2015
11535
10940
983
13285
9927
4040
14366
14165
9794
643
6076
10111
10928
6218
7461
2798
6975
12437
16079
7093
3179
1699
2572
11327
4487
7455
926
15460
3284
16511
11692
2230
7135
6077
818
15831
16347
3598
11354
2040
13873
3971
15827
280
15524
3552
14052
13282
16556
9565
9164
2114
3146
5774
12294
7479
1004
6215
648
937
801
14747
12340
11742
14056
13786
3475
3793
200
1772
1724
10748
14986
2628
3315
16247
2412
177
1506
7354
9384
5785
10190
15345
178
7259
6924
164
1578
7028
101
1222
7533
12108
2710
764
617
8277
3668
6949
12452
7003
8600
15383
1025
14064
15066
6973
7568
14955
2788
2458
16137
9147
7652
3413
15752
5570
11355
14672
13461
10536
15660
14274
6966
5299
11007
13925
5844
382
9949
2194
790
2039
6168
7107
1499
8980
7698
3801
2018
3717
6985
2558
6368
15632
38
12054
7287
5815
7788
6901
8652
540
15739
3635
11610
8658
6193
3820
6143
3395
6072
6606
1923
5711
11634
3978
555
7572
999
11928
15354
3212
3522
12284
2203
8252
3806
11195
5904
1449
2856
1975
1387
15582
4037
2335
4772
9688
12415
4052
7286
7302
2390
1581
16147
6910
13497
369
1023
7110
2029
1844
2890
16129
15483
5549
6948
4076
1015
9701
4039
14097
8226
11434
1593
3604
3768
1752
3836
7577
14472
2665
14260
2859
5520
1746
3813
12204
11941
2248
12531
9773
7734
5776
11384
156
5585
3313
1740
15328
14645
6320
1666
14099
16331
3292
3976
9964
3802
14519
527
2168
6333
7445
6147
3200
8071
14582
1939
8477
6285
10209
1145
9941
7266
12684
4780
3597
6187
978
13014
703
5802
15661
4096
50
2011
1768
13741
16423
2200
1652
11717
15408
15762
2571
10150
3367
5835
15351
15894
7138
4083
3530
13542
6303
7722
4333
3855
2819
11030
2928
9681
10910
15226
1594
15658
10796
8139
560
1704
6443
2664
1957
1777
6916
3624
2808
13378
702
1182
3296
7323
13593
7495
1459
12276
2051
1960
5541
9960
13931
6289
12785
104
309
6597
5831
4079
16216
12136
875
2749
16703
676
381
1949
6921
15735
14667
7752
14448
3695
2497
7265
11709
12139
15372
1705
9914
10013
7261
183
1654
12423
9926
3777
1810
1400
9016
16871
10915
12254
3602
16150
2823
6882
7739
13663
5952
14331
8984
292
5739
5997
13815
12269
9998
1743
7661
6960
6417
2426
5352
8930
2405
12069
15488
2391
2190
3206
6997
16090
11275
9135
4719
8765
892
1590
6162
2319
1633
10234
2574
2097
685
533
14048
7041
15784
939
10844
5912
274
9132
3796
3192
7550
6965
7678
8713
2381
4561
11615
646
944
13498
7482
3285
4101
440
45
10222
12147
9805
14196
2048
3311
9825
13419
16203
3634
15785
3805
1271
13012
2774
13287
7481
15648
10816
7757
5714
4084
3386
6887
6994
2238
631
7054
1121
14129
10116
10747
13246
2054
13532
8605
12661
3502
8976
7789
6418
3151
5568
5592
6918
9130
2844
1308
8086
14060
11189
586
8717
8602
2719
13791
2970
8348
378
2641
13678
11604
2916
9157
2690
10002
7053
14451
3265
11712
413
8967
2244
12996
14138
4070
9797
14654
3838
13655
5540
2468
4642
87
14055
1484
1358
8961
27
12537
9896
529
4751
16074
2103
3185
14989
3798
8720
14670
5385
11784
16139
8351
13735
11645
10953
6935
16092
9996
1443
11176
466
6138
2871
13896
12984
6917
4712
13668
7459
6991
15751
12296
16291
2255
4055
7179
11694
4800
8289
3495
7352
12940
8597
4518
12049
1846
2100
11920
13001
15974
5814
11602
2361
557
15551
4093
244
2702
7472
6381
13727
9686
6151
7658
662
12689
3702
10716
11023
13611
1813
2475
7452
12241
3818
9458
5998
11012
610
3470
14659
13686
2924
6377
10857
15652
9781
3753
14193
3339
8990
3693
9138
3940
3611
16322
5596
2593
16132
11910
11938
6141
1239
4789
5889
9929
247
1457
12223
3136
16199
10254
3664
15771
14057
4030
658
721
1835
9731
837
2878
304
14119
7311
2858
7442
7394
6369
3742
3799
7166
15350
10122
7256
1726
3312
7234
6331
437
3493
1662
319
1277
1068
3526
632
16200
2034
3696
11024
14446
5386
14746
2673
6364
12951
240
5898
577
7705
221
7474
7485
4793
1235
12993
15480
190
13472
7443
762
1575
9880
436
1130
3516
1058
8319
14202
1258
2173
2072
16645
8940
3852
2675
362
587
12279
9711
15519
11750
2685
11933
9788
9155
1295
13953
2977
13819
11062
7447
3316
8368
2077
3044
15233
7228
5286
3219
6336
13658
2889
7094
9167
4016
11710
7342
7260
1217
12678
4753
4488
4049
3553
504
16473
1040
9801
370
694
1879
2431
534
12212
12809
2400
1281
5305
6334
6153
13011
198
12207
11043
6374
10697
7978
7274
12203
8306
840
12064
8259
2529
12810
13059
11443
11754
15916
758
2669
1678
3639
8258
11936
4097
1412
13669
925
5929
7773
11740
11054
5851
852
6160
1758
6912
100
2618
3524
9943
4496
16640
2637
9857
5916
3921
9802
15237
13487
3850
627
423
14053
10108
791
6955
2959
11707
3618
12522
6938
9819
1325
14205
2285
6936
13582
10007
3644
7011
9804
11009
4764
11052
12143
1034
2031
7123
492
7158
1907
859
1838
7180
3617
519
2825
133
1938
3831
11636
1971
11175
4562
2756
1875
15536
3628
1135
12058
11037
7811
8219
2676
3075
2948
2505
2992
15395
82
13533
5572
11357
9740
12520
1545
12257
846
11334
11952
3325
1822
12048
14109
7473
2225
14392
4708
12554
965
1082
1460
6019
337
5974
7119
10125
10854
15347
8173
16157
2706
167
7192
15518
6385
15534
341
11959
2617
11945
4099
13588
9148
2421
8484
14118
12573
15783
140
4090
8363
1840
6416
14093
4127
4032
14189
2364
8993
943
3647
15376
3724
3770
10807
16792
7724
10559
3931
15888
579
6140
7790
14123
9690
2990
14115
5564
6907
1685
8313
7469
24
2469
6962
2403
16087
3242
6931
11706
2979
13604
6118
862
6345
7707
7399
15761
5944
12339
11686
6387
7238
9386
3476
11130
7088
7451
7709
10929
6908
1129
7493
8223
2017
6324
10826
2667
7101
8347
7449
7124
15855
2747
12982
2032
3755
4763
16259
405
5554
1829
2483
8603
16568
2661
1636
2472
6961
1081
7491
795
912
2722
1502
1659
9988
3750
11336
10236
12083
2850
15584
462
11181
12944
11908
9696
9717
9810
8357
7641
3326
15757
16055
7156
5988
2419
10543
720
5796
8178
3759
15898
1218
3439
15247
4073
11533
13284
1008
11927
14170
16705
7446
10231
243
2668
6897
7010
9730
4564
59
6200
13877
6173
2533
8567
5779
14475
16694
16324
344
1781
16692
12507
2944
14335
1769
6878
2007
6864
6209
11003
12082
1657
7079
6929
3222
9119
1442
3477
7165
7465
2028
3867
7222
6164
12690
3821
7398
7190
3167
2824
9473
7064
14581
11331
5791
3537
1103
3930
15973
1219
7314
476
9709
7643
10977
7240
835
12685
13683
16135
6714
9716
11106
2434
2655
11263
7237
11901
6217
3408
2643
15549
2479
5557
2691
9140
7494
7236
1687
7333
10820
3391
15905
13832
14470
7682
12270
3851
404
995
7545
8659
15657
10873
10107
14372
14588
16173
1338
2016
15725
14978
10922
12428
5946
16421
11530
127
677
9836
5825
2099
3227
13638
12292
10118
151
16363
3643
6866
11080
3575
6157
14561
14467
8721
15756
9820
7350
12081
7648
2935
15330
12506
276
8951
10937
7460
7567
7129
12094
10549
342
3675
3669
6858
4482
13581
7665
13889
16710
3268
7007
6403
1092
10113
1897
8483
4071
3429
7340
9006
9932
5311
6885
2062
2536
3058
13831
9719
11102
16419
1883
1467
16131
43
6608
14627
10123
3658
13021
6392
1434
13894
15232
16509
635
7048
2275
2322
1756
2795
802
12997
9136
2984
10036
2433
14745
9152
3601
2164
108
2744
16326
6319
1865
8076
2613
2284
8282
16167
12216
1802
8688
13010
11523
7075
8307
756
4771
13629
13580
15474
3346
3612
3411
11755
6433
9131
6363
9770
2770
15862
13603
4086
1462
3319
6350
7780
16210
208
14671
12246
2170
525
11104
427
3088
3886
6998
2058
15011
9700
4088
11753
15065
906
9861
13003
39
4797
8979
3148
12215
12086
5790
6080
2420
14534
16305
7144
10763
1785
16562
8994
5899
3817
9791
15722
2499
1693
7702
2116
1968
3862
6430
15666
3738
12262
10725
12072
7243
9971
7664
15486
11944
1077
9471
67
2592
3684
12700
6034
484
8080
13671
3427
14106
9994
6423
2010
15024
10700
1826
11261
12342
2840
1941
2348
90
6133
1784
13075
2921
12266
5820
10556
15478
10714
5778
16786
10709
5968
3590
10817
433
7141
2240
6125
11719
7244
5984
5875
2363
15547
6718
1419
1206
8927
9986
3767
10024
13936
2075
12344
1126
3501
31
3098
3392
11385
13244
7215
8304
7637
11748
9156
6312
2023
2491
15677
5567
14632
1671
7285
12687
15352
5900
3329
11711
13930
3701
3534
2632
3589
1446
232
13920
2560
2380
5784
8227
4799
7270
2915
6317
991
7276
7100
11179
5583
15557
6398
6911
8903
6892
2575
132
5970
1253
12105
2881
6343
2598
621
569
8384
856
7571
13779
16191
1820
3399
4752
3922
3550
16012
10930
6896
15983
3216
1415
15763
262
800
281
16328
606
2416
86
11194
1577
1479
1612
223
10115
880
314
1091
9705
3341
3672
4057
7769
12525
6237
7147
6400
9457
2994
2076
1192
2428
1766
15896
1013
2553
12290
782
16046
4477
10979
6204
401
14749
10015
3330
2092
12098
5882
7305
5817
21
8234
10834
13543
15829
899
2611
2383
954
12062
6382
147
2548
13572
9723
3891
5885
10017
1448
3499
8971
2067
1376
14596
8918
1858
11919
9909
5924
1782
11943
16218
15906
12789
2445
6208
1692
2923
7326
10708
7127
13734
8974
1757
14631
1731
3
2334
6213
14673
2344
7688
10906
12237
1922
13074
3277
1620
1674
11017
8964
11330
2485
16127
11022
8975
5947
2843
15899
1209
11476
2815
6307
2769
1421
60
11534
15240
1426
52
517
3623
6993
9476
6881
336
12433
11311
2956
2854
5375
2848
5973
13654
7132
6384
16552
16014
2693
5921
13963
11624
7319
348
2444
7457
15063
13589
7185
16214
605
5799
1247
8928
2950
3756
7561
6295
12538
1184
2715
1315
246
3303
11216
12281
1638
8217
2662
10233
2079
16325
6036
7701
2713
3832
1494
380
3549
6970
16249
7155
10541
1205
16164
186
855
6376
4117
1568
12341
16650
385
1263
10966
12243
13772
12681
7151
2875
13923
4778
3557
16136
9970
8191
6963
6602
14629
15479
461
13933
397
3073
9769
10208
1720
15655
1761
2482
7675
16212
2045
14578
7800
10194
7503
1220
2510
3699
3124
3529
870
2193
13573
3149
13052
1884
2714
14197
7785
13934
7666
7645
12582
10914
5306
6922
8680
2623
2288
11954
2009
6873
7116
1455
3424
2591
11475
8345
2197
903
2442
1083
2679
3482
1828
975
6306
2595
15052
11044
1066
4656
1185
16553
14466
15467
3046
673
2892
908
3741
9923
885
14201
11963
1003
7338
12680
7518
13950
6404
1821
5884
7072
3973
2314
6360
16246
5911
6383
14127
16177
3811
15231
3404
948
435
7081
2169
2389
9763
2396
2477
11600
11383
126
11930
288
6020
7591
330
311
15315
2122
245
7289
3708
1663
5349
7654
7507
13281
1487
3403
11184
10219
6954
3204
3804
9913
1561
8093
13926
528
2826
5550
3660
7284
1234
4749
16146
15344
5878
9895
4568
7021
12511
8176
153
1104
5384
443
6188
8353
7344
970
2038
14369
7334
1343
2586
7356
12090
11744
9789
5595
9118
172
5879
6044
514
5903
6349
15750
3310
823
1572
15576
5797
10703
11016
3177
13787
2913
3582
3423
874
15913
1925
2609
14162
829
3558
2460
11410
6442
34
7016
2839
16257
14630
3743
1799
7023
10255
294
1303
4744
7795
7562
5515
12238
1892
5519
57
367
3273
14096
9931
7047
9899
333
3503
16306
6957
5337
13007
2243
8954
12784
2021
14116
1452
3619
12343
12986
13571
4103
1679
16052
989
3559
9778
7026
1537
16516
3228
6410
4068
4566
14267
14952
4782
1407
1597
3637
11628
14373
952
8992
15900
1463
6409
15987
12574
7341
485
13988
11474
3680
7153
3579
10542
7559
334
40
821
1706
13631
2410
12528
3839
7339
5982
74
7306
9010
10762
12102
8275
9472
14103
524
7725
10117
4653
4768
7803
7102
270
6182
3308
3715
11070
10932
12247
3070
3782
11041
7278
14338
10201
1101
6868
2639
1869
3490
3656
3393
10026
7262
15772
2914
13283
14648
3071
5971
4036
14580
6135
15461
2837
2022
7799
5501
9925
2113
296
14100
13694
6163
5396
1649
666
13731
7498
8985
3520
13715
12217
2297
14665
3445
392
2298
7312
3707
3568
7505
16248
14348
4064
2680
683
6884
2982
4341
819
11781
4081
3650
15487
7406
9792
7000
10927
1236
3789
5832
116
4652
9812
7108
1095
3481
7396
8687
9000
3833
7345
12224
13643
5367
15366
13525
9150
207
1208
5245
6899
9714
7277
8301
12567
10005
3324
3605
28
15548
8349
5581
9887
1640
9879
6288
11616
2418
7813
169
1119
988
15646
9474
16294
7536
2471
6046
11889
15023
10677
2978
5913
12142
8923
9919
257
2549
11525
457
7535
4643
963
2688
7219
3483
10829
4110
754
2052
15850
9817
18
12533
6120
3527
15521
3282
7537
14743
141
2249
7056
5942
16254
2991
12660
12790
8321
6332
2610
7098
7071
9159
15910
12277
5829
2111
390
8904
15353
7275
9921
1139
4028
254
10555
6950
8092
11066
6287
713
4485
3525
2635
10560
13922
2049
9693
6412
928
10912
11473
9961
495
845
2303
175
7544
356
7335
3147
8973
7397
2069
12208
9847
359
16202
16784
10800
7391
2694
2388
273
6148
11258
166
9702
7142
258
647
2387
1940
9908
12112
2936
1070
3778
3220
5786
15678
14091
7408
16592
5824
322
3518
15531
3785
6865
1759
2760
16121
11038
15738
3803
118
3835
625
11601
857
6356
15126
9984
13746
3544
10909
15036
13733
13040
7583
16020
8163
284
1839
9725
3667
16713
7096
7
7143
638
16021
1722
15845
2809
7500
3191
10933
7647
5789
407
6139
13009
10985
3933
4085
6869
5381
15583
9456
279
3736
11961
7646
5275
193
6989
2988
3556
15918
3043
7317
8948
1860
8081
11915
831
15895
6079
5281
2777
12503
2280
2619
6214
15234
358
4767
15853
3622
6212
10023
11031
2793
6206
6169
15396
14070
1589
3593
6405
16299
15977
651
11906
2481
2507
2829
1451
2356
609
2626
2254
11603
7824
2316
6286
588
16187
13541
196
6979
2493
12534
2415
2064
2570
1624
3087
11962
1661
1552
3332
7239
12299
9482
255
9121
13455
2109
11735
8682
7231
6012
1175
14080
3824
2289
2346
7140
2425
4762
13598
518
4334
2933
2828
13529
6284
15644
5926
7012
1198
2907
3713
11329
6391
7139
1284
7060
15746
11614
9901
11737
161
6337
3342
12080
2355
242
2385
7496
10094
2528
869
9122
9004
9737
2763
9779
11014
496
15663
7733
7404
14161
2014
9978
2503
11631
9969
15879
16554
16559
1210
14656
5837
8728
1255
5999
3188
3630
7322
16698
1453
6926
1283
11937
13288
10554
2551
3566
1539
3980
7448
9021
15860
3718
9939
14940
5351
11358
7758
2660
3784
10022
7035
1347
441
15236
5813
16258
1996
6999
2638
11618
14121
13820
3825
3169
13798
14188
6889
7681
13818
16317
15830
13665
14122
326
6967
867
5539
3417
3564
1714
1409
8097
13570
12071
15675
9844
14742
2746
6434
4754
2946
1990
464
9018
13069
2703
2286
1760
3110
10822
3786
3692
13919
13811
4338
3318
14102
13585
615
97
7077
8485
14187
9795
13876
8952
13875
3562
15580
11337
6305
7014
13060
8168
1167
583
5566
3464
1425
12234
535
11008
13381
15527
8719
3430
6156
12953
7979
16051
130
9251
3111
8096
531
3201
13992
421
3189
6352
11382
4112
7386
2003
8365
2124
9161
2709
9777
12426
1515
10852
7118
10935
2302
10216
3400
6894
9862
3202
14761
9065
3645
10815
2001
9128
442
15676
11625
11736
11072
7804
1000
7490
15672
6943
2337
542
3748
1158
554
7300
10441
5685
13892
2884
1815
8305
3298
13890
12148
10962
9747
4094
10119
14136
1690
2654
10726
14164
1555
16193
11085
3486
10783
9612
984
9143
9823
6438
7078
5795
9689
11620
2073
7453
7224
11739
13789
9950
5956
1619
7182
16190
13722
15923
7133
1665
11058
12424
4787
103
1342
16702
11260
6189
7651
7112
5834
4047
1056
14054
7516
2759
7049
7037
7085
7134
3765
633
2466
757
15721
9634
1503
8988
2123
6902
14983
10805
7099
3095
14089
3591
174
2761
1725
13524
8947
12067
4757
3620
14954
2086
1631
3791
1061
8480
7178
3322
10019
1001
6211
1534
10564
4795
16227
2402
9685
1531
3049
2448
2414
2700
1625
958
3056
8314
3314
10227
3384
2423
10004
8478
5715
13063
2585
6353
1800
12995
1583
11685
4018
15528
11440
3764
12546
13019
13657
15473
16593
515
13990
11958
11949
3565
2523
3890
7091
8278
1071
13592
2217
9835
2550
2496
1147
163
11528
12293
15854
578
7770
7017
1269
7009
7145
698
13602
13318
1470
16696
2902
1454
10006
9002
5708
16181
2024
389
1579
8692
11611
836
10814
761
1087
13520
3666
10202
1643
5893
11640
1483
16053
11139
692
6972
1289
13042
6415
12466
12500
1774
4516
14666
4023
3112
6906
2672
12544
2954
3290
1473
16047
14105
3725
1280
1857
12368
9001
3638
1120
11441
6432
11145
4654
15550
2467
3918
14194
6883
8344
6282
8685
1501
8162
7223
16048
1361
3263
3885
7814
10916
6006
5927
743
6177
16517
4041
6199
3281
14584
1771
938
2404
12999
5995
12526
3433
3923
8300
13237
13613
14681
14340
2866
13778
3435
9144
16558
8929
1512
10198
14657
7313
7683
12989
2013
5499
8264
12222
13732
3673
9139
1809
4029
7732
320
10931
12060
7183
7690
9968
539
8978
6301
1962
1005
11939
6136
1117
1385
574
14941
9017
15643
4022
7710
2755
4783
13491
8641
15863
13039
8279
3459
11956
12432
1214
13016
290
13454
12441
23
7171
5548
6134
2983
891
1854
860
8352
15346
7560
13742
9607
14067
1637
12787
2106
285
7777
6995
9903
4078
8920
10936
11641
1779
7130
3783
7055
9940
9726
567
55
12519
6419
2862
681
11623
13695
1937
14065
2594
13796
16268
224
4061
12552
11010
11731
11705
154
16089
7586
7802
9790
14465
5358
9022
11918
4059
2640
14628
7024
12430
1673
5589
5376
1533
6236
1664
2742
16560
3299
3396
7032
5576
7325
1567
13632
1749
1458
7269
684
5986
4031
2615
16138
13485
7539
6859
9748
5908
12101
8977
594
15060
9019
789
15327
8686
7062
1913
3230
11107
14104
10212
11264
2873
13275
590
9947
12138
8195
9977
5794
1628
1051
8475
7640
3048
113
9774
6603
12547
6221
3117
7444
1450
11018
7548
12524
13587
1686
11005
12053
3336
3977
696
872
10754
2530
16133
7329
2696
2952
3101
1798
942
1755
9814
2532
11897
11779
10797
14081
9020
5873
220
13693
226
16869
7466
5345
15907
511
9917
3271
3654
14579
14111
4020
3105
3100
1713
1622
7565
12994
10199
15020
131
11020
9469
6875
3492
10217
15039
5936
1250
3086
3705
2945
2849
853
15482
1647
886
7746
1569
3560
6296
5569
7462
14128
14069
12093
4035
3297
3076
202
10926
12589
6380
10014
12308
11105
826
2461
471
6175
12252
7057
9889
2246
6942
12954
1085
11075
3737
6304
2525
1934
8356
14339
1267
1372
2883
7218
7097
1928
1894
11734
8587
3182
1492
8950
15045
697
66
9845
9768
9822
3523
1916
15125
4105
7569
8156
8945
5602
9787
3577
2336
7268
347
15723
7478
16417
3828
10810
16845
10211
12113
9966
228
2301
7229
10713
16881
2236
15836
16178
14979
8164
5587
3203
7706
7089
7015
10821
6180
1956
5777
13043
2786
10229
12289
760
9707
14728
2046
5716
15737
15997
2057
8152
12983
3198
520
5573
1474
16270
13048
11947
5713
1961
12227
13634
7042
3519
4087
12288
4517
2004
478
13893
3057
2545
5377
11777
6609
2484
13086
5826
2996
10197
5687
9137
11335
158
796
7353
12149
6888
3217
9934
9741
7407
4017
1525
10819
2653
8312
3723
873
11077
10908
8700
1199
16019
9956
12110
1868
5560
3286
125
5877
705
15533
2681
189
7084
1080
11907
9190
832
7174
12164
14564
2674
11524
14583
15834
2783
8174
3051
2233
8919
360
15228
7347
16217
3752
817
12945
3726
13853
6919
10701
842
5909
2526
712
3892
9954
12952
12536
3528
2847
3041
1564
2081
13664
13061
15371
1867
2705
2877
286
12570
1754
300
8987
11913
8481
3555
15786
13793
13924
2044
776
14269
299
9762
8262
5565
1563
192
7566
13991
13252
15912
6402
1012
1447
11387
3163
5800
9470
2323
9990
3546
2313
10547
13300
11529
15585
6982
15755
505
16704
5978
15062
1616
2128
3547
7783
1599
3405
14661
2490
2642
14125
4074
7454
10924
2630
13677
2008
119
5808
6027
918
6361
14068
12256
1556
1734
13004
12151
5780
9516
7667
7576
849
932
8308
11782
11708
16788
6011
580
30
10253
13979
12068
12788
5917
3436
2629
9729
102
5518
12658
2922
1615
1045
847
9680
2063
6904
5593
6988
3626
12079
2221
2096
1989
10622
16045
7585
11328
6341
10038
11633
9120
12280
3578
9775
1136
15914
7768
11033
1627
14445
16706
1787
7321
7273
7248
9733
10242
204
4015
608
2720
8323
2340
3480
2697
2794
3380
3919
640
3365
13777
1429
11688
11923
7150
4651
6441
9834
10558
2821
13687
1150
2000
4042
9818
672
11089
824
1874
15866
12211
6435
15848
12987
850
15662
9948
368
9483
16232
1027
5994
2590
1170
10934
13812
1141
1848
2379
7540
865
11063
12786
7670
6420
3841
3722
3275
7677
1093
1646
96
248
3809
933
16327
9746
339
13891
3276
508
7120
68
2683
15034
14727
4019
3925
3823
15496
1797
1143
3243
3863
895
65
9882
8137
16022
2205
1079
3594
7822
4756
366
1392
355
3184
6599
1423
1493
1711
7745
14982
2520
7657
3735
15832
275
16269
2566
449
8172
9008
3187
686
8676
2554
3703
16017
11079
11934
3082
15915
2718
12287
12373
9645
7772
8697
1356
879
2567
2986
3585
7137
5759
1134
13599
1847
16839
53
6951
12645
9166
5552
13995
15868
3388
15579
851
7232
11932
15238
12255
3320
6933
1507
7502
966
3327
6890
8939
13628
1801
3168
2919
15654
16840
1676
15765
7001
7301
2836
6281
121
2382
1163
10919
9999
4067
7109
887
9846
15847
8298
7051
3379
456
8921
2486
7022
16514
4080
8715
12454
7074
195
7476
8167
15314
12545
2897
10121
16077
5524
2436
1554
3772
12066
7718
1201
14082
3040
3119
2614
16346
176
13641
11911
491
1521
499
16320
13243
3406
9796
6144
15633
558
2393
3291
1212
1264
451
11522
12942
3683
2724
10535
2527
1921
1202
16515
98
16636
10230
14083
15320
383
10000
16148
7320
7574
6372
1744
7405
2658
7534
4053
16647
1014
6923
16211
2569
16180
7245
7067
2453
5362
3720
15749
4750
9915
3538
249
8902
9808
3471
2995
1520
9860
6190
350
16
9736
3059
5308
13037
6953
13489
7176
7080
786
545
6294
115
1911
701
15782
12673
16708
11084
14114
6203
33
1436
12583
7703
6222
3343
10439
11646
477
729
9985
15230
15016
13630
12205
9972
7086
3409
2437
8218
10961
7304
9930
3106
11732
6340
7152
46
15578
2584
4480
3745
9149
13002
7686
3771
2234
12518
15843
5516
6359
10001
2707
2282
8369
10297
16158
5582
5809
13921
9146
9745
13739
12517
12960
4027
7659
1114
187
15670
9938
463
6920
10124
8591
11061
1039
5526
3113
12057
3208
5807
7103
2565
7671
8642
1498
1792
6154
15781
652
14092
11042
301
10920
15269
10114
5979
5880
3615
4108
6183
4940
11746
15532
8722
16155
14090
2511
10545
9928
11619
12214
162
3790
6149
6947
9955
6867
1113
14374
227
1698
4484
13058
6146
12455
3264
7638
1585
10193
2494
8364
5563
12225
3932
6898
7716
2397
7456
6113
1963
2462
6944
14540
386
4641
1227
12440
11626
3521
2939
7018
469
12263
12267
11068
3710
1541
7711
5788
4483
5342
2463
13794
599
3732
3335
1709
11208
4044
2299
13038
13028
6335
2050
12250
4769
3444
3815
1574
10012
805
581
3426
448
3469
5775
332
5366
54
1002
16183
3170
2117
2818
15429
15469
13810
5558
9478
3181
11621
4013
213
3596
14591
1200
16648
7217
1089
6981
1261
3636
11609
1166
7162
11638
8724
1893
9981
7006
1991
365
14367
14198
1246
10021
1924
1959
2864
1926
5710
2652
12239
4033
9724
3415
16162
10210
7801
1232
1159
16416
9758
7403
10257
14682
2392
16179
6207
4066
13000
4025
14199
1488
5805
1301
7589
10945
15758
10550
1682
9828
2804
2568
3072
6872
3716
11608
3183
2245
4340
7792
1160
3808
3442
3402
15342
16649
12509
12087
3457
15475
9900
8372
13745
3616
5297
4567
6428
2102
138
4107
9858
5555
3607
15629
11605
7704
3269
9722
371
9800
1895
6431
6862
14195
7161
10918
8196
3195
9771
16838
1729
2782
7303
11948
833
9727
14108
12297
2347
14733
3407
3162
8589
2650
5379
11991
2488
14257
11418
349
12141
1243
7693
3199
3288
11630
9699
8222
11960
13743
5967
14598
6913
11011
2531
15924
799
7250
406
13662
1153
14261
9181
14387
7573
2867
6389
1551
10573
2930
1929
12059
777
2427
12429
7552
598
2663
16267
16176
13292
7736
657
7775
1340
9721
217
3418
3826
1852
3455
3438
1042
8324
3300
11025
1803
15726
1465
42
3969
1225
4069
8995
1500
12089
64
6863
15242
111
16169
7225
2455
3583
3642
1118
11527
6518
12085
3052
530
12282
12206
11249
2339
3270
1152
1997
7499
6946
510
7327
616
6956
2226
6424
1337
8317
7741
9987
12990
798
13584
5371
3014
11520
2395
8644
10552
3651
14414
9713
980
6893
9965
10793
7584
15852
1355
15754
547
16371
7246
6601
128
1737
1036
13256
11738
6355
9945
13623
9117
8900
1611
2101
6607
2874
1043
1598
10
523
14333
4128
9126
8922
203
15581
661
2026
2904
13286
2634
16163
3239
2682
3116
9911
1708
325
6426
13940
5886
15546
844
9902
675
